EESchema Schematic File Version 2
LIBS:power
LIBS:device
LIBS:transistors
LIBS:conn
LIBS:linear
LIBS:regul
LIBS:74xx
LIBS:cmos4000
LIBS:adc-dac
LIBS:memory
LIBS:xilinx
LIBS:microcontrollers
LIBS:dsp
LIBS:microchip
LIBS:analog_switches
LIBS:motorola
LIBS:texas
LIBS:intel
LIBS:audio
LIBS:interface
LIBS:digital-audio
LIBS:philips
LIBS:display
LIBS:cypress
LIBS:siliconi
LIBS:opto
LIBS:atmel
LIBS:contrib
LIBS:valves
LIBS:nmos_gsd
LIBS:gdt
LIBS:ProtectorSwitch-cache
EELAYER 25 0
EELAYER END
$Descr A3 16535 11693
encoding utf-8
Sheet 1 1
Title "Power line monitor and switch"
Date "2015.08.20"
Rev "1"
Comp "Robert Csordas"
Comment1 ""
Comment2 ""
Comment3 ""
Comment4 ""
$EndDescr
$Comp
L NMOS_GSD Q?
U 1 1 55D62AC3
P 10100 4750
F 0 "Q?" V 10450 4850 50  0000 L CNN
F 1 "IPD60R600CP" V 10350 4450 50  0000 L CNN
F 2 "TO-220" H 10350 4675 50  0001 L CIN
F 3 "" H 10100 4750 50  0000 L CNN
	1    10100 4750
	0    -1   1    0   
$EndComp
$Comp
L NMOS_GSD Q?
U 1 1 55D62B43
P 9250 4250
F 0 "Q?" H 9100 4400 50  0000 L CNN
F 1 "BSS123" V 9500 4050 50  0000 L CNN
F 2 "TO-220" H 9500 4175 50  0001 L CIN
F 3 "" H 9250 4250 50  0000 L CNN
	1    9250 4250
	1    0    0    -1  
$EndComp
$Comp
L ZENER D?
U 1 1 55D62C03
P 9850 4450
F 0 "D?" H 9850 4550 50  0000 C CNN
F 1 "ZENER" H 9850 4350 50  0000 C CNN
F 2 "" H 9850 4450 60  0000 C CNN
F 3 "" H 9850 4450 60  0000 C CNN
	1    9850 4450
	0    1    1    0   
$EndComp
$Comp
L ZENER D?
U 1 1 55D62CB3
P 8900 4550
F 0 "D?" H 8900 4650 50  0000 C CNN
F 1 "ZENER" H 8900 4450 50  0000 C CNN
F 2 "" H 8900 4550 60  0000 C CNN
F 3 "" H 8900 4550 60  0000 C CNN
	1    8900 4550
	0    1    1    0   
$EndComp
$Comp
L R R?
U 1 1 55D62E42
P 8500 4550
F 0 "R?" V 8580 4550 50  0000 C CNN
F 1 "100k" V 8500 4550 50  0000 C CNN
F 2 "" V 8430 4550 30  0000 C CNN
F 3 "" H 8500 4550 30  0000 C CNN
	1    8500 4550
	1    0    0    -1  
$EndComp
$Comp
L ZENER D?
U 1 1 55D62E75
P 8500 3950
F 0 "D?" H 8500 4050 50  0000 C CNN
F 1 "ZENER" H 8500 3850 50  0000 C CNN
F 2 "" H 8500 3950 60  0000 C CNN
F 3 "" H 8500 3950 60  0000 C CNN
	1    8500 3950
	0    1    1    0   
$EndComp
$Comp
L R R?
U 1 1 55D62EAF
P 8500 3600
F 0 "R?" V 8580 3600 50  0000 C CNN
F 1 "470k" V 8500 3600 50  0000 C CNN
F 2 "" V 8430 3600 30  0000 C CNN
F 3 "" H 8500 3600 30  0000 C CNN
	1    8500 3600
	1    0    0    -1  
$EndComp
$Comp
L R R?
U 1 1 55D62EE0
P 10150 3650
F 0 "R?" V 10230 3650 50  0000 C CNN
F 1 "100k" V 10150 3650 50  0000 C CNN
F 2 "" V 10080 3650 30  0000 C CNN
F 3 "" H 10150 3650 30  0000 C CNN
	1    10150 3650
	1    0    0    -1  
$EndComp
$Comp
L R R?
U 1 1 55D63191
P 8150 4850
F 0 "R?" V 8230 4850 50  0000 C CNN
F 1 "33" V 8150 4850 50  0000 C CNN
F 2 "" V 8080 4850 30  0000 C CNN
F 3 "" H 8150 4850 30  0000 C CNN
	1    8150 4850
	0    1    1    0   
$EndComp
$Comp
L C C?
U 1 1 55D634FB
P 10650 4100
F 0 "C?" H 10675 4200 50  0000 L CNN
F 1 "C" H 10675 4000 50  0000 L CNN
F 2 "" H 10688 3950 30  0000 C CNN
F 3 "" H 10650 4100 60  0000 C CNN
	1    10650 4100
	1    0    0    -1  
$EndComp
$Comp
L C C?
U 1 1 55D63580
P 10900 4100
F 0 "C?" H 10925 4200 50  0000 L CNN
F 1 "C" H 10925 4000 50  0000 L CNN
F 2 "" H 10938 3950 30  0000 C CNN
F 3 "" H 10900 4100 60  0000 C CNN
	1    10900 4100
	1    0    0    -1  
$EndComp
$Comp
L GND #PWR?
U 1 1 55D6370D
P 11350 4850
F 0 "#PWR?" H 11350 4600 50  0001 C CNN
F 1 "GND" H 11350 4700 50  0000 C CNN
F 2 "" H 11350 4850 60  0000 C CNN
F 3 "" H 11350 4850 60  0000 C CNN
	1    11350 4850
	1    0    0    -1  
$EndComp
$Comp
L TRANSFO T?
U 1 1 55D638CF
P 8050 1850
F 0 "T?" H 8050 2100 50  0000 C CNN
F 1 "20:1" H 8050 1550 50  0000 C CNN
F 2 "" H 8050 1850 60  0000 C CNN
F 3 "" H 8050 1850 60  0000 C CNN
	1    8050 1850
	0    1    1    0   
$EndComp
$Comp
L TRIAC U?
U 1 1 55D63A47
P 10000 1450
F 0 "U?" H 9750 1800 50  0000 C CNN
F 1 "BTA312-600D" V 10150 1000 50  0000 C CNN
F 2 "" H 10000 1450 60  0000 C CNN
F 3 "" H 10000 1450 60  0000 C CNN
	1    10000 1450
	0    -1   -1   0   
$EndComp
$Comp
L Diode_Bridge D?
U 1 1 55D63038
P 6650 4100
F 0 "D?" H 6650 4150 50  0000 C CNN
F 1 "Diode_Bridge" H 6650 4050 50  0000 C CNN
F 2 "" H 6650 4100 60  0000 C CNN
F 3 "" H 6650 4100 60  0000 C CNN
	1    6650 4100
	0    -1   -1   0   
$EndComp
$Comp
L R R?
U 1 1 55D63E3A
P 9200 2000
F 0 "R?" V 9280 2000 50  0000 C CNN
F 1 "470" V 9200 2000 50  0000 C CNN
F 2 "" V 9130 2000 30  0000 C CNN
F 3 "" H 9200 2000 30  0000 C CNN
	1    9200 2000
	0    1    1    0   
$EndComp
$Comp
L MOC3012M U?
U 1 1 55D63EFE
P 9650 2300
F 0 "U?" H 9450 2500 50  0000 L CNN
F 1 "MOC3012SR2M" H 9350 2050 50  0000 L CNN
F 2 "" H 9650 2300 50  0000 L CIN
F 3 "" H 9625 2300 50  0000 L CNN
	1    9650 2300
	0    -1   -1   0   
$EndComp
$Comp
L R R?
U 1 1 55D6441D
P 9200 2600
F 0 "R?" V 9280 2600 50  0000 C CNN
F 1 "270" V 9200 2600 50  0000 C CNN
F 2 "" V 9130 2600 30  0000 C CNN
F 3 "" H 9200 2600 30  0000 C CNN
	1    9200 2600
	0    1    1    0   
$EndComp
$Comp
L GND #PWR?
U 1 1 55D6449F
P 9750 2600
F 0 "#PWR?" H 9750 2350 50  0001 C CNN
F 1 "GND" H 9750 2450 50  0000 C CNN
F 2 "" H 9750 2600 60  0000 C CNN
F 3 "" H 9750 2600 60  0000 C CNN
	1    9750 2600
	1    0    0    -1  
$EndComp
Text GLabel 9000 2600 0    39   Input ~ 0
SW_ON
$Comp
L R R?
U 1 1 55D6CF5E
P 7750 3600
F 0 "R?" V 7830 3600 50  0000 C CNN
F 1 "1k" V 7750 3600 50  0000 C CNN
F 2 "" V 7680 3600 30  0000 C CNN
F 3 "" H 7750 3600 30  0000 C CNN
	1    7750 3600
	1    0    0    -1  
$EndComp
$Comp
L R R?
U 1 1 55D6CFC9
P 7750 4550
F 0 "R?" V 7830 4550 50  0000 C CNN
F 1 "470k" V 7750 4550 50  0000 C CNN
F 2 "" V 7680 4550 30  0000 C CNN
F 3 "" H 7750 4550 30  0000 C CNN
	1    7750 4550
	1    0    0    -1  
$EndComp
Text GLabel 7850 2350 3    39   Input ~ 0
0.5_VREF
Text GLabel 8250 2350 3    39   Output ~ 0
I_SENSE
$Comp
L R R?
U 1 1 55D6DC2F
P 8050 2300
F 0 "R?" V 8130 2300 50  0000 C CNN
F 1 "0.47" V 8050 2300 50  0000 C CNN
F 2 "" V 7980 2300 30  0000 C CNN
F 3 "" H 8050 2300 30  0000 C CNN
	1    8050 2300
	0    1    1    0   
$EndComp
$Comp
L R R?
U 1 1 55D6DFAE
P 6450 1950
F 0 "R?" V 6530 1950 50  0000 C CNN
F 1 "470k" V 6450 1950 50  0000 C CNN
F 2 "" V 6380 1950 30  0000 C CNN
F 3 "" H 6450 1950 30  0000 C CNN
	1    6450 1950
	0    1    1    0   
$EndComp
$Comp
L R R?
U 1 1 55D6E017
P 6450 2550
F 0 "R?" V 6530 2550 50  0000 C CNN
F 1 "470k" V 6450 2550 50  0000 C CNN
F 2 "" V 6380 2550 30  0000 C CNN
F 3 "" H 6450 2550 30  0000 C CNN
	1    6450 2550
	0    1    1    0   
$EndComp
$Comp
L R R?
U 1 1 55D6EA44
P 6850 1950
F 0 "R?" V 6930 1950 50  0000 C CNN
F 1 "1.5k" V 6850 1950 50  0000 C CNN
F 2 "" V 6780 1950 30  0000 C CNN
F 3 "" H 6850 1950 30  0000 C CNN
	1    6850 1950
	0    1    1    0   
$EndComp
$Comp
L R R?
U 1 1 55D6EAEF
P 6850 2550
F 0 "R?" V 6930 2550 50  0000 C CNN
F 1 "1.5k" V 6850 2550 50  0000 C CNN
F 2 "" V 6780 2550 30  0000 C CNN
F 3 "" H 6850 2550 30  0000 C CNN
	1    6850 2550
	0    1    1    0   
$EndComp
Text GLabel 6750 2200 2    39   Output ~ 0
VMEAS_P1
Text GLabel 6750 2750 2    39   Output ~ 0
VMEAS_P2
Text GLabel 7350 2250 2    39   Input ~ 0
VREF
$Comp
L R R?
U 1 1 55D6FB47
P 11350 3700
F 0 "R?" V 11430 3700 50  0000 C CNN
F 1 "R" V 11350 3700 50  0000 C CNN
F 2 "" V 11280 3700 30  0000 C CNN
F 3 "" H 11350 3700 30  0000 C CNN
	1    11350 3700
	1    0    0    -1  
$EndComp
$Comp
L R R?
U 1 1 55D6FBDA
P 11350 4500
F 0 "R?" V 11430 4500 50  0000 C CNN
F 1 "R" V 11350 4500 50  0000 C CNN
F 2 "" V 11280 4500 30  0000 C CNN
F 3 "" H 11350 4500 30  0000 C CNN
	1    11350 4500
	1    0    0    -1  
$EndComp
Text GLabel 11450 4100 2    39   Output ~ 0
PREREG_MEAS
$Comp
L R R?
U 1 1 55D707BB
P 9400 850
F 0 "R?" V 9480 850 50  0000 C CNN
F 1 "100" V 9400 850 50  0000 C CNN
F 2 "" V 9330 850 30  0000 C CNN
F 3 "" H 9400 850 30  0000 C CNN
	1    9400 850 
	0    1    1    0   
$EndComp
$Comp
L C C?
U 1 1 55D70840
P 10300 850
F 0 "C?" H 10325 950 50  0000 L CNN
F 1 "100n" H 10325 750 50  0000 L CNN
F 2 "" H 10338 700 30  0000 C CNN
F 3 "" H 10300 850 60  0000 C CNN
	1    10300 850 
	0    1    1    0   
$EndComp
$Comp
L VCC #PWR?
U 1 1 55D70DC4
P 11350 3350
F 0 "#PWR?" H 11350 3200 50  0001 C CNN
F 1 "VCC" H 11350 3500 50  0000 C CNN
F 2 "" H 11350 3350 60  0000 C CNN
F 3 "" H 11350 3350 60  0000 C CNN
	1    11350 3350
	1    0    0    -1  
$EndComp
Text Notes 6300 1700 0    39   ~ 0
Calculate line voltage (half rectified): \nmax_x(ADC_MAX-VMEAS_Px-PREREG_MEAS)
$Comp
L FUSE F?
U 1 1 55D729CF
P 2950 1450
F 0 "F?" H 3050 1500 50  0000 C CNN
F 1 "10A 250V" H 2950 1250 50  0000 C CNN
F 2 "" H 2950 1450 60  0000 C CNN
F 3 "" H 2950 1450 60  0000 C CNN
	1    2950 1450
	1    0    0    -1  
$EndComp
$Comp
L GDT GDT?
U 1 1 55D72DA5
P 3650 2750
F 0 "GDT?" H 3900 3200 39  0000 C CNN
F 1 "2052-35-SM-RPLF" H 4100 3100 39  0000 C CNN
F 2 "" H 3650 2750 39  0000 C CNN
F 3 "" H 3650 2750 39  0000 C CNN
	1    3650 2750
	1    0    0    -1  
$EndComp
$Comp
L VR VR?
U 1 1 55D73159
P 4300 1450
F 0 "VR?" V 4360 1404 50  0000 C TNN
F 1 "LVR125S" V 4200 1450 50  0000 C CNN
F 2 "" H 4300 1450 60  0000 C CNN
F 3 "" H 4300 1450 60  0000 C CNN
	1    4300 1450
	0    1    1    0   
$EndComp
$Comp
L VR VR?
U 1 1 55D6E6E5
P 4950 2100
F 0 "VR?" V 5010 2054 50  0000 C TNN
F 1 "V275LA4P" V 4800 2100 50  0000 C CNN
F 2 "" H 4950 2100 60  0000 C CNN
F 3 "" H 4950 2100 60  0000 C CNN
	1    4950 2100
	-1   0    0    1   
$EndComp
$Comp
L VR VR?
U 1 1 55D6E763
P 4950 3450
F 0 "VR?" V 5010 3404 50  0000 C TNN
F 1 "V275LA4P" V 4800 3450 50  0000 C CNN
F 2 "" H 4950 3450 60  0000 C CNN
F 3 "" H 4950 3450 60  0000 C CNN
	1    4950 3450
	-1   0    0    1   
$EndComp
$Comp
L VR VR?
U 1 1 55D6EF09
P 4300 4000
F 0 "VR?" V 4360 3954 50  0000 C TNN
F 1 "LVR125S" V 4200 4000 50  0000 C CNN
F 2 "" H 4300 4000 60  0000 C CNN
F 3 "" H 4300 4000 60  0000 C CNN
	1    4300 4000
	0    1    1    0   
$EndComp
$Comp
L CONN_01X03 P?
U 1 1 55D6F3F2
P 1550 2700
F 0 "P?" H 1550 2900 50  0000 C CNN
F 1 "CONN_01X03" V 1650 2700 50  0000 C CNN
F 2 "" H 1550 2700 60  0000 C CNN
F 3 "" H 1550 2700 60  0000 C CNN
	1    1550 2700
	-1   0    0    -1  
$EndComp
Text Label 1800 2600 0    60   ~ 0
LINE
$Comp
L VR VR?
U 1 1 55D6FBD8
P 5300 2800
F 0 "VR?" V 5360 2754 50  0000 C TNN
F 1 "V275LA4P" V 5150 2800 50  0000 C CNN
F 2 "" H 5300 2800 60  0000 C CNN
F 3 "" H 5300 2800 60  0000 C CNN
	1    5300 2800
	-1   0    0    1   
$EndComp
Wire Wire Line
	8300 4850 8500 4850
Wire Wire Line
	8500 4850 8900 4850
Wire Wire Line
	8900 4850 9350 4850
Wire Wire Line
	9350 4850 9850 4850
Wire Wire Line
	9850 4850 9900 4850
Wire Wire Line
	8500 4850 8500 4700
Wire Wire Line
	8500 3750 8500 3750
Wire Wire Line
	8500 4300 8900 4300
Wire Wire Line
	8900 4300 9050 4300
Wire Wire Line
	8500 4150 8500 4300
Wire Wire Line
	8500 4300 8500 4400
Wire Wire Line
	8900 4300 8900 4350
Connection ~ 8900 4300
Wire Wire Line
	8900 4750 8900 4850
Connection ~ 8900 4850
Wire Wire Line
	10150 3800 10150 4050
Wire Wire Line
	10150 4050 10150 4550
Wire Wire Line
	9850 4650 9850 4850
Connection ~ 9850 4850
Wire Wire Line
	9350 4050 9850 4050
Wire Wire Line
	9850 4050 10150 4050
Connection ~ 10150 4050
Wire Wire Line
	9850 4250 9850 4050
Connection ~ 9850 4050
Wire Wire Line
	9350 4450 9350 4850
Connection ~ 9350 4850
Connection ~ 8500 4300
Wire Wire Line
	8500 3350 8500 3450
Wire Wire Line
	6650 3350 7750 3350
Wire Wire Line
	7750 3350 8500 3350
Wire Wire Line
	8500 3350 10150 3350
Wire Wire Line
	10150 3350 10650 3350
Wire Wire Line
	10650 3350 10900 3350
Wire Wire Line
	10900 3350 11350 3350
Wire Wire Line
	10150 3350 10150 3500
Wire Wire Line
	10650 4250 10650 4850
Wire Wire Line
	10300 4850 10650 4850
Wire Wire Line
	10650 4850 10900 4850
Wire Wire Line
	10900 4850 11350 4850
Wire Wire Line
	10900 4850 10900 4250
Connection ~ 10650 4850
Wire Wire Line
	10650 3350 10650 3950
Connection ~ 10150 3350
Wire Wire Line
	10900 3350 10900 3950
Connection ~ 10650 3350
Connection ~ 8500 4850
Wire Wire Line
	6650 3400 6650 3350
Connection ~ 8500 3350
Wire Wire Line
	6650 4850 7750 4850
Wire Wire Line
	7750 4850 8000 4850
Wire Wire Line
	6650 4850 6650 4800
Wire Wire Line
	8250 1450 8950 1450
Wire Wire Line
	8950 1450 9600 1450
Wire Wire Line
	4550 1450 4950 1450
Wire Wire Line
	4950 1450 5300 1450
Wire Wire Line
	5300 1450 6200 1450
Wire Wire Line
	6200 1450 7850 1450
Wire Wire Line
	7350 4100 7350 3150
Wire Wire Line
	7350 3150 6200 3150
Wire Wire Line
	6200 3150 6200 1950
Wire Wire Line
	6200 1950 6200 1450
Connection ~ 6200 1450
Wire Wire Line
	8950 2000 9050 2000
Wire Wire Line
	8950 850  8950 1450
Wire Wire Line
	8950 1450 8950 2000
Connection ~ 8950 1450
Wire Wire Line
	9550 2000 9350 2000
Wire Wire Line
	9750 2000 10200 2000
Wire Wire Line
	10200 2000 10200 1950
Wire Wire Line
	9000 2600 9050 2600
Wire Wire Line
	9350 2600 9550 2600
Wire Wire Line
	7750 4700 7750 4850
Connection ~ 7750 4850
Wire Wire Line
	7750 4400 7750 3750
Wire Wire Line
	7750 3450 7750 3350
Connection ~ 7750 3350
Wire Wire Line
	7850 2250 7850 2300
Wire Wire Line
	7850 2300 7850 2350
Wire Wire Line
	7900 2300 7850 2300
Connection ~ 7850 2300
Wire Wire Line
	8200 2300 8250 2300
Wire Wire Line
	8250 2250 8250 2300
Wire Wire Line
	8250 2300 8250 2350
Connection ~ 8250 2300
Wire Wire Line
	6300 1950 6200 1950
Connection ~ 6200 1950
Wire Wire Line
	7000 1950 7200 1950
Wire Wire Line
	6600 1950 6650 1950
Wire Wire Line
	6650 1950 6700 1950
Wire Wire Line
	7200 2550 7000 2550
Wire Wire Line
	6300 2550 5950 2550
Connection ~ 5950 2550
Wire Wire Line
	6600 2550 6650 2550
Wire Wire Line
	6650 2550 6700 2550
Wire Wire Line
	6750 2750 6650 2750
Wire Wire Line
	6650 2750 6650 2550
Connection ~ 6650 2550
Wire Wire Line
	6750 2200 6650 2200
Wire Wire Line
	6650 2200 6650 1950
Connection ~ 6650 1950
Wire Wire Line
	7200 1950 7200 2250
Wire Wire Line
	7200 2250 7200 2550
Wire Wire Line
	7350 2250 7200 2250
Connection ~ 7200 2250
Wire Wire Line
	11350 3850 11350 4100
Wire Wire Line
	11350 4100 11350 4350
Wire Wire Line
	11350 4850 11350 4650
Connection ~ 10900 4850
Wire Wire Line
	11450 4100 11350 4100
Connection ~ 11350 4100
Wire Wire Line
	11350 3350 11350 3550
Connection ~ 10900 3350
Wire Wire Line
	8950 850  9250 850 
Wire Wire Line
	9550 850  10150 850 
Wire Wire Line
	10250 1450 10800 1450
Wire Wire Line
	10800 1450 12400 1450
Wire Wire Line
	10800 1450 10800 850 
Wire Wire Line
	10800 850  10450 850 
Wire Wire Line
	5950 5350 12400 5350
Wire Wire Line
	12400 5350 12400 3250
Connection ~ 5950 4100
Connection ~ 11350 4850
Connection ~ 11350 3350
Wire Wire Line
	12400 1450 12400 3150
Connection ~ 10800 1450
Wire Wire Line
	5950 2550 5950 4000
Wire Wire Line
	5950 4000 5950 4100
Wire Wire Line
	5950 4100 5950 5350
Wire Wire Line
	4100 2750 4550 2750
Wire Wire Line
	4550 2750 4950 2750
Wire Wire Line
	4950 2350 4950 2750
Wire Wire Line
	4950 2750 4950 3200
Wire Wire Line
	4950 1850 4950 1450
Wire Wire Line
	3200 1450 3650 1450
Wire Wire Line
	3650 1450 4050 1450
Wire Wire Line
	3650 2300 3650 1450
Connection ~ 3650 1450
Wire Wire Line
	3650 4000 3650 3200
Wire Wire Line
	4950 4000 4950 3700
Connection ~ 3650 4000
Connection ~ 4950 2750
Wire Wire Line
	4550 4000 4950 4000
Wire Wire Line
	4950 4000 5300 4000
Wire Wire Line
	5300 4000 5950 4000
Wire Wire Line
	2300 4000 3650 4000
Wire Wire Line
	3650 4000 4050 4000
Connection ~ 4950 1450
Wire Wire Line
	1750 2700 2300 2700
Wire Wire Line
	2300 2700 2300 4000
Wire Wire Line
	1750 2600 2300 2600
Wire Wire Line
	2300 2600 2300 1450
Wire Wire Line
	2300 1450 2700 1450
Wire Wire Line
	1750 2800 2150 2800
Wire Wire Line
	2150 2800 2150 3500
Wire Wire Line
	2150 3500 2150 5550
Wire Wire Line
	2150 3500 4550 3500
Wire Wire Line
	4550 3500 4550 2750
Connection ~ 4550 2750
Connection ~ 5950 4000
Connection ~ 4950 4000
Wire Wire Line
	5300 2550 5300 1450
Connection ~ 5300 1450
Wire Wire Line
	5300 3050 5300 4000
Connection ~ 5300 4000
Text Label 1800 2700 0    60   ~ 0
0
Text Label 1800 2800 0    60   ~ 0
PE
Text Notes 4150 1300 0    39   ~ 0
PTC
Text Notes 4150 3850 0    39   ~ 0
PTC
Text Notes 4850 2300 1    39   ~ 0
MOV
Text Notes 4850 3650 1    39   ~ 0
MOV
Text Notes 5200 3000 1    39   ~ 0
MOV
$Comp
L CONN_01X03 P?
U 1 1 55D71338
P 13250 3250
F 0 "P?" H 13250 3450 50  0000 C CNN
F 1 "CONN_01X03" V 13350 3250 50  0000 C CNN
F 2 "" H 13250 3250 60  0000 C CNN
F 3 "" H 13250 3250 60  0000 C CNN
	1    13250 3250
	1    0    0    -1  
$EndComp
Wire Wire Line
	12400 3150 13050 3150
Wire Wire Line
	12400 3250 13050 3250
Wire Wire Line
	13050 3350 12550 3350
Wire Wire Line
	12550 3350 12550 5550
Wire Wire Line
	12550 5550 2150 5550
Connection ~ 2150 3500
Text Notes 12700 3150 0    39   ~ 0
O_LINE
Text Notes 12700 3250 0    39   ~ 0
O_0
Text Notes 12700 3350 0    39   ~ 0
O_PE
Text Notes 7800 2850 0    39   ~ 0
0.235V / 10A\n84mW RMS @ 10A
Text Notes 7850 1350 0    39   ~ 0
0.011V / 10A
Text Notes 9150 1950 0    39   ~ 0
1W
Text Notes 8100 4800 0    39   ~ 0
>1W
$EndSCHEMATC
